^D:\DOCUMENTS\VS2017\PROJECTS\M4RIDA\DEBUG\AIMBOT.OBJ|D:\DOCUMENTS\VS2017\PROJECTS\M4RIDA\DEBUG\CANNOUNCER.OBJ|D:\DOCUMENTS\VS2017\PROJECTS\M4RIDA\DEBUG\CBASEENTITY.OBJ|D:\DOCUMENTS\VS2017\PROJECTS\M4RIDA\DEBUG\CDRAWMANAGER.OBJ|D:\DOCUMENTS\VS2017\PROJECTS\M4RIDA\DEBUG\CLIENT.OBJ|D:\DOCUMENTS\VS2017\PROJECTS\M4RIDA\DEBUG\CMENU.OBJ|D:\DOCUMENTS\VS2017\PROJECTS\M4RIDA\DEBUG\CNETVARS.OBJ|D:\DOCUMENTS\VS2017\PROJECTS\M4RIDA\DEBUG\CONVAR.OBJ|D:\DOCUMENTS\VS2017\PROJECTS\M4RIDA\DEBUG\CSIGNATURE.OBJ|D:\DOCUMENTS\VS2017\PROJECTS\M4RIDA\DEBUG\DLLMAIN.OBJ|D:\DOCUMENTS\VS2017\PROJECTS\M4RIDA\DEBUG\ESP.OBJ|D:\DOCUMENTS\VS2017\PROJECTS\M4RIDA\DEBUG\FRAMESTAGENOTIFY.OBJ|D:\DOCUMENTS\VS2017\PROJECTS\M4RIDA\DEBUG\INFOPANEL.OBJ|D:\DOCUMENTS\VS2017\PROJECTS\M4RIDA\DEBUG\JSON.OBJ|D:\DOCUMENTS\VS2017\PROJECTS\M4RIDA\DEBUG\LOG.OBJ|D:\DOCUMENTS\VS2017\PROJECTS\M4RIDA\DEBUG\MENU.OBJ|D:\DOCUMENTS\VS2017\PROJECTS\M4RIDA\DEBUG\MISC.OBJ|D:\DOCUMENTS\VS2017\PROJECTS\M4RIDA\DEBUG\NETVARS.OBJ|D:\DOCUMENTS\VS2017\PROJECTS\M4RIDA\DEBUG\PANELS.OBJ|D:\DOCUMENTS\VS2017\PROJECTS\M4RIDA\DEBUG\PROJECTILE.OBJ|D:\DOCUMENTS\VS2017\PROJECTS\M4RIDA\DEBUG\QANGLE.OBJ|D:\DOCUMENTS\VS2017\PROJECTS\M4RIDA\DEBUG\RADAR.OBJ|D:\DOCUMENTS\VS2017\PROJECTS\M4RIDA\DEBUG\SETTINGS.OBJ|D:\DOCUMENTS\VS2017\PROJECTS\M4RIDA\DEBUG\TESTMENU.OBJ|D:\DOCUMENTS\VS2017\PROJECTS\M4RIDA\DEBUG\TRIGGERBOT.OBJ|D:\DOCUMENTS\VS2017\PROJECTS\M4RIDA\DEBUG\UTIL.OBJ|D:\DOCUMENTS\VS2017\PROJECTS\M4RIDA\DEBUG\VMTHOOKS.OBJ
C:\WINDOWS\GLOBALIZATION\SORTING\SORTDEFAULT.NLS
C:\PROGRAM FILES (X86)\WINDOWS KITS\10\LIB\10.0.16299.0\UM\X86\KERNEL32.LIB
C:\PROGRAM FILES (X86)\WINDOWS KITS\10\LIB\10.0.16299.0\UM\X86\USER32.LIB
C:\PROGRAM FILES (X86)\WINDOWS KITS\10\LIB\10.0.16299.0\UM\X86\GDI32.LIB
C:\PROGRAM FILES (X86)\WINDOWS KITS\10\LIB\10.0.16299.0\UM\X86\WINSPOOL.LIB
C:\PROGRAM FILES (X86)\WINDOWS KITS\10\LIB\10.0.16299.0\UM\X86\COMDLG32.LIB
C:\PROGRAM FILES (X86)\WINDOWS KITS\10\LIB\10.0.16299.0\UM\X86\ADVAPI32.LIB
C:\PROGRAM FILES (X86)\WINDOWS KITS\10\LIB\10.0.16299.0\UM\X86\SHELL32.LIB
C:\PROGRAM FILES (X86)\WINDOWS KITS\10\LIB\10.0.16299.0\UM\X86\OLE32.LIB
C:\PROGRAM FILES (X86)\WINDOWS KITS\10\LIB\10.0.16299.0\UM\X86\OLEAUT32.LIB
C:\PROGRAM FILES (X86)\WINDOWS KITS\10\LIB\10.0.16299.0\UM\X86\UUID.LIB
C:\PROGRAM FILES (X86)\WINDOWS KITS\10\LIB\10.0.16299.0\UM\X86\ODBC32.LIB
C:\PROGRAM FILES (X86)\WINDOWS KITS\10\LIB\10.0.16299.0\UM\X86\ODBCCP32.LIB
D:\DOCUMENTS\VS2017\PROJECTS\M4RIDA\DEBUG\AIMBOT.OBJ
D:\DOCUMENTS\VS2017\PROJECTS\M4RIDA\DEBUG\CANNOUNCER.OBJ
D:\DOCUMENTS\VS2017\PROJECTS\M4RIDA\DEBUG\CBASEENTITY.OBJ
D:\DOCUMENTS\VS2017\PROJECTS\M4RIDA\DEBUG\CDRAWMANAGER.OBJ
D:\DOCUMENTS\VS2017\PROJECTS\M4RIDA\DEBUG\CLIENT.OBJ
D:\DOCUMENTS\VS2017\PROJECTS\M4RIDA\DEBUG\CMENU.OBJ
D:\DOCUMENTS\VS2017\PROJECTS\M4RIDA\DEBUG\CNETVARS.OBJ
D:\DOCUMENTS\VS2017\PROJECTS\M4RIDA\DEBUG\CONVAR.OBJ
D:\DOCUMENTS\VS2017\PROJECTS\M4RIDA\DEBUG\DLLMAIN.OBJ
D:\DOCUMENTS\VS2017\PROJECTS\M4RIDA\DEBUG\ESP.OBJ
D:\DOCUMENTS\VS2017\PROJECTS\M4RIDA\DEBUG\FRAMESTAGENOTIFY.OBJ
D:\DOCUMENTS\VS2017\PROJECTS\M4RIDA\DEBUG\INFOPANEL.OBJ
D:\DOCUMENTS\VS2017\PROJECTS\M4RIDA\DEBUG\JSON.OBJ
D:\DOCUMENTS\VS2017\PROJECTS\M4RIDA\DEBUG\LOG.OBJ
D:\DOCUMENTS\VS2017\PROJECTS\M4RIDA\DEBUG\MENU.OBJ
D:\DOCUMENTS\VS2017\PROJECTS\M4RIDA\DEBUG\MISC.OBJ
D:\DOCUMENTS\VS2017\PROJECTS\M4RIDA\DEBUG\NETVARS.OBJ
D:\DOCUMENTS\VS2017\PROJECTS\M4RIDA\DEBUG\PANELS.OBJ
D:\DOCUMENTS\VS2017\PROJECTS\M4RIDA\DEBUG\CSIGNATURE.OBJ
D:\DOCUMENTS\VS2017\PROJECTS\M4RIDA\DEBUG\PROJECTILE.OBJ
D:\DOCUMENTS\VS2017\PROJECTS\M4RIDA\DEBUG\QANGLE.OBJ
D:\DOCUMENTS\VS2017\PROJECTS\M4RIDA\DEBUG\RADAR.OBJ
D:\DOCUMENTS\VS2017\PROJECTS\M4RIDA\DEBUG\SETTINGS.OBJ
D:\DOCUMENTS\VS2017\PROJECTS\M4RIDA\DEBUG\TESTMENU.OBJ
D:\DOCUMENTS\VS2017\PROJECTS\M4RIDA\DEBUG\TRIGGERBOT.OBJ
D:\DOCUMENTS\VS2017\PROJECTS\M4RIDA\DEBUG\UTIL.OBJ
D:\DOCUMENTS\VS2017\PROJECTS\M4RIDA\DEBUG\VMTHOOKS.OBJ
D:\PROGRAM FILES\VISUAL STUDIO\2017\COMMUNITY\VC\TOOLS\MSVC\14.11.25503\BIN\HOSTX86\X86\1033\LINKUI.DLL
D:\PROGRAM FILES\VISUAL STUDIO\2017\COMMUNITY\VC\TOOLS\MSVC\14.11.25503\LIB\X86\MSVCPRTD.LIB
D:\PROGRAM FILES\VISUAL STUDIO\2017\COMMUNITY\VC\TOOLS\MSVC\14.11.25503\LIB\X86\MSVCRTD.LIB
D:\PROGRAM FILES\VISUAL STUDIO\2017\COMMUNITY\VC\TOOLS\MSVC\14.11.25503\LIB\X86\OLDNAMES.LIB
D:\PROGRAM FILES\VISUAL STUDIO\2017\COMMUNITY\VC\TOOLS\MSVC\14.11.25503\LIB\X86\VCRUNTIMED.LIB
C:\PROGRAM FILES (X86)\WINDOWS KITS\10\LIB\10.0.16299.0\UCRT\X86\UCRTD.LIB
C:\PROGRAM FILES (X86)\WINDOWS KITS\10\BIN\10.0.16299.0\X86\RC.EXE
D:\PROGRAM FILES\VISUAL STUDIO\2017\COMMUNITY\VC\TOOLS\MSVC\14.11.25503\BIN\HOSTX86\X86\CVTRES.EXE
C:\WINDOWS\SYSTEM32\TZRES.DLL
